-8.62e-008	0
-8.6e-008	0
-8.58e-008	0
-8.56e-008	0
-8.54e-008	0
-8.52e-008	0
-8.5e-008	0
-8.48e-008	0
-8.46e-008	0
-8.44e-008	0
-8.42e-008	0
-8.4e-008	1
-8.38e-008	0
-8.36e-008	1
-8.34e-008	0
-8.32e-008	0
-8.3e-008	0
-8.28e-008	0
-8.26e-008	0
-8.24e-008	1
-8.22e-008	0
-8.2e-008	1
-8.18e-008	1
-8.16e-008	0
-8.14e-008	0
-8.12e-008	0
-8.1e-008	0
-8.08e-008	1
-8.06e-008	0
-8.04e-008	1
-8.02e-008	0
-8e-008	0
-7.98e-008	0
-7.96e-008	0
-7.94e-008	0
-7.92e-008	0
-7.9e-008	0
-7.88e-008	0
-7.86e-008	0
-7.84e-008	0
-7.82e-008	0
-7.8e-008	0
-7.78e-008	0
-7.76e-008	0
-7.74e-008	0
-7.72e-008	0
-7.7e-008	0
-7.68e-008	0
-7.66e-008	2
-7.64e-008	1
-7.62e-008	0
-7.6e-008	0
-7.58e-008	1
-7.56e-008	0
-7.54e-008	0
-7.52e-008	0
-7.5e-008	0
-7.48e-008	0
-7.46e-008	1
-7.44e-008	0
-7.42e-008	1
-7.4e-008	3
-7.38e-008	1
-7.36e-008	0
-7.34e-008	1
-7.32e-008	0
-7.3e-008	0
-7.28e-008	1
-7.26e-008	0
-7.24e-008	0
-7.22e-008	1
-7.2e-008	3
-7.18e-008	6
-7.16e-008	4
-7.14e-008	3
-7.12e-008	2
-7.1e-008	1
-7.08e-008	4
-7.06e-008	5
-7.04e-008	5
-7.02e-008	10
-7e-008	5
-6.98e-008	9
-6.96e-008	10
-6.94e-008	3
-6.92e-008	5
-6.9e-008	10
-6.88e-008	6
-6.86e-008	9
-6.84e-008	13
-6.82e-008	13
-6.8e-008	9
-6.78e-008	11
-6.76e-008	13
-6.74e-008	21
-6.72e-008	11
-6.7e-008	20
-6.68e-008	14
-6.66e-008	6
-6.64e-008	14
-6.62e-008	12
-6.6e-008	8
-6.58e-008	14
-6.56e-008	11
-6.54e-008	27
-6.52e-008	14
-6.5e-008	17
-6.48e-008	19
-6.46e-008	16
-6.44e-008	19
-6.42e-008	12
-6.4e-008	14
-6.38e-008	14
-6.36e-008	8
-6.34e-008	7
-6.32e-008	16
-6.3e-008	14
-6.28e-008	12
-6.26e-008	12
-6.24e-008	7
-6.22e-008	15
-6.2e-008	16
-6.18e-008	9
-6.16e-008	7
-6.14e-008	10
-6.12e-008	8
-6.1e-008	7
-6.08e-008	10
-6.06e-008	8
-6.04e-008	7
-6.02e-008	8
-6e-008	8
-5.98e-008	6
-5.96e-008	8
-5.94e-008	4
-5.92e-008	1
-5.9e-008	9
-5.88e-008	9
-5.86e-008	8
-5.84e-008	10
-5.82e-008	11
-5.8e-008	10
-5.78e-008	7
-5.76e-008	8
-5.74e-008	15
-5.72e-008	12
-5.7e-008	14
-5.68e-008	20
-5.66e-008	10
-5.64e-008	8
-5.62e-008	7
-5.6e-008	16
-5.58e-008	13
-5.56e-008	8
-5.54e-008	14
-5.52e-008	16
-5.5e-008	19
-5.48e-008	19
-5.46e-008	20
-5.44e-008	26
-5.42e-008	13
-5.4e-008	16
-5.38e-008	26
-5.36e-008	29
-5.34e-008	25
-5.32e-008	22
-5.3e-008	30
-5.28e-008	31
-5.26e-008	29
-5.24e-008	44
-5.22e-008	38
-5.2e-008	33
-5.18e-008	31
-5.16e-008	35
-5.14e-008	40
-5.12e-008	43
-5.1e-008	40
-5.08e-008	33
-5.06e-008	39
-5.04e-008	35
-5.02e-008	28
-5e-008	26
-4.98e-008	36
-4.96e-008	47
-4.94e-008	39
-4.92e-008	31
-4.9e-008	29
-4.88e-008	41
-4.86e-008	43
-4.84e-008	27
-4.82e-008	29
-4.8e-008	42
-4.78e-008	28
-4.76e-008	19
-4.74e-008	32
-4.72e-008	27
-4.7e-008	21
-4.68e-008	18
-4.66e-008	12
-4.64e-008	15
-4.62e-008	19
-4.6e-008	20
-4.58e-008	14
-4.56e-008	19
-4.54e-008	21
-4.52e-008	11
-4.5e-008	15
-4.48e-008	11
-4.46e-008	8
-4.44e-008	9
-4.42e-008	13
-4.4e-008	7
-4.38e-008	6
-4.36e-008	16
-4.34e-008	7
-4.32e-008	6
-4.3e-008	6
-4.28e-008	7
-4.26e-008	6
-4.24e-008	6
-4.22e-008	8
-4.2e-008	7
-4.18e-008	5
-4.16e-008	4
-4.14e-008	7
-4.12e-008	8
-4.1e-008	8
-4.08e-008	7
-4.06e-008	10
-4.04e-008	7
-4.02e-008	8
-4e-008	3
-3.98e-008	11
-3.96e-008	11
-3.94e-008	12
-3.92e-008	9
-3.9e-008	9
-3.88e-008	6
-3.86e-008	7
-3.84e-008	7
-3.82e-008	7
-3.8e-008	9
-3.78e-008	17
-3.76e-008	6
-3.74e-008	8
-3.72e-008	8
-3.7e-008	6
-3.68e-008	7
-3.66e-008	9
-3.64e-008	7
-3.62e-008	4
-3.6e-008	10
-3.58e-008	9
-3.56e-008	6
-3.54e-008	10
-3.52e-008	6
-3.5e-008	13
-3.48e-008	10
-3.46e-008	12
-3.44e-008	8
-3.42e-008	5
-3.4e-008	11
-3.38e-008	13
-3.36e-008	10
-3.34e-008	9
-3.32e-008	14
-3.3e-008	4
-3.28e-008	11
-3.26e-008	9
-3.24e-008	9
-3.22e-008	6
-3.2e-008	10
-3.18e-008	10
-3.16e-008	5
-3.14e-008	11
-3.12e-008	7
-3.1e-008	8
-3.08e-008	12
-3.06e-008	12
-3.04e-008	9
-3.02e-008	10
-3e-008	11
-2.98e-008	11
-2.96e-008	12
-2.94e-008	11
-2.92e-008	9
-2.9e-008	11
-2.88e-008	12
-2.86e-008	16
-2.84e-008	16
-2.82e-008	9
-2.8e-008	14
-2.78e-008	17
-2.76e-008	14
-2.74e-008	18
-2.72e-008	14
-2.7e-008	31
-2.68e-008	16
-2.66e-008	30
-2.64e-008	25
-2.62e-008	33
-2.6e-008	37
-2.58e-008	28
-2.56e-008	38
-2.54e-008	52
-2.52e-008	53
-2.5e-008	60
-2.48e-008	69
-2.46e-008	75
-2.44e-008	65
-2.42e-008	96
-2.4e-008	115
-2.38e-008	110
-2.36e-008	115
-2.34e-008	121
-2.32e-008	147
-2.3e-008	148
-2.28e-008	135
-2.26e-008	152
-2.24e-008	158
-2.22e-008	148
-2.2e-008	168
-2.18e-008	148
-2.16e-008	142
-2.14e-008	182
-2.12e-008	166
-2.1e-008	153
-2.08e-008	165
-2.06e-008	167
-2.04e-008	160
-2.02e-008	132
-2e-008	130
-1.98e-008	112
-1.96e-008	115
-1.94e-008	120
-1.92e-008	79
-1.9e-008	92
-1.88e-008	81
-1.86e-008	79
-1.84e-008	75
-1.82e-008	75
-1.8e-008	65
-1.78e-008	67
-1.76e-008	49
-1.74e-008	67
-1.72e-008	51
-1.7e-008	45
-1.68e-008	41
-1.66e-008	34
-1.64e-008	29
-1.62e-008	30
-1.6e-008	27
-1.58e-008	30
-1.56e-008	33
-1.54e-008	26
-1.52e-008	27
-1.5e-008	41
-1.48e-008	37
-1.46e-008	27
-1.44e-008	33
-1.42e-008	28
-1.4e-008	28
-1.38e-008	29
-1.36e-008	34
-1.34e-008	30
-1.32e-008	32
-1.3e-008	40
-1.28e-008	41
-1.26e-008	42
-1.24e-008	31
-1.22e-008	30
-1.2e-008	25
-1.18e-008	44
-1.16e-008	26
-1.14e-008	36
-1.12e-008	32
-1.1e-008	40
-1.08e-008	34
-1.06e-008	42
-1.04e-008	39
-1.02e-008	30
-1e-008	32
-9.8e-009	38
-9.6e-009	32
-9.4e-009	31
-9.2e-009	34
-9e-009	38
-8.8e-009	31
-8.6e-009	27
-8.4e-009	26
-8.2e-009	20
-8e-009	27
-7.8e-009	13
-7.6e-009	14
-7.4e-009	22
-7.2e-009	26
-7e-009	20
-6.8e-009	16
-6.6e-009	8
-6.4e-009	12
-6.2e-009	12
-6e-009	11
-5.8e-009	3
-5.6e-009	7
-5.4e-009	6
-5.2e-009	4
-5e-009	6
-4.8e-009	6
-4.6e-009	8
-4.4e-009	13
-4.2e-009	6
-4e-009	8
-3.8e-009	7
-3.6e-009	9
-3.4e-009	9
-3.2e-009	5
-3e-009	3
-2.8e-009	3
-2.6e-009	1
-2.4e-009	85
-2.2e-009	78
-2e-009	14
-1.8e-009	0
-1.6e-009	0
-1.4e-009	0
-1.2e-009	0
-1e-009	0
-8e-010	0
-6e-010	0
-4e-010	0
-2e-010	0
4.067e-022	0
2e-010	0
4e-010	0
6e-010	0
8e-010	0
1e-009	0
1.2e-009	0
1.4e-009	0
1.6e-009	0
1.8e-009	0
2e-009	0
2.2e-009	0
2.4e-009	0
2.6e-009	0
2.8e-009	0
3e-009	0
3.2e-009	0
3.4e-009	0
3.6e-009	0
3.8e-009	0
4e-009	0
4.2e-009	0
4.4e-009	0
4.6e-009	0
4.8e-009	0
5e-009	0
5.2e-009	0
5.4e-009	0
5.6e-009	0
5.8e-009	0
6e-009	0
6.2e-009	0
6.4e-009	0
6.6e-009	0
6.8e-009	0
7e-009	0
7.2e-009	0
7.4e-009	0
7.6e-009	0
7.8e-009	0
