-7.76e-008	0
-7.74e-008	0
-7.72e-008	0
-7.7e-008	0
-7.68e-008	0
-7.66e-008	0
-7.64e-008	0
-7.62e-008	0
-7.6e-008	0
-7.58e-008	0
-7.56e-008	0
-7.54e-008	0
-7.52e-008	0
-7.5e-008	0
-7.48e-008	0
-7.46e-008	0
-7.44e-008	0
-7.42e-008	0
-7.4e-008	0
-7.38e-008	0
-7.36e-008	0
-7.34e-008	0
-7.32e-008	0
-7.3e-008	0
-7.28e-008	0
-7.26e-008	0
-7.24e-008	0
-7.22e-008	0
-7.2e-008	0
-7.18e-008	0
-7.16e-008	0
-7.14e-008	0
-7.12e-008	0
-7.1e-008	0
-7.08e-008	0
-7.06e-008	0
-7.04e-008	1
-7.02e-008	0
-7e-008	0
-6.98e-008	0
-6.96e-008	1
-6.94e-008	1
-6.92e-008	0
-6.9e-008	0
-6.88e-008	0
-6.86e-008	1
-6.84e-008	0
-6.82e-008	0
-6.8e-008	1
-6.78e-008	0
-6.76e-008	0
-6.74e-008	0
-6.72e-008	0
-6.7e-008	0
-6.68e-008	0
-6.66e-008	0
-6.64e-008	0
-6.62e-008	0
-6.6e-008	0
-6.58e-008	0
-6.56e-008	0
-6.54e-008	0
-6.52e-008	0
-6.5e-008	0
-6.48e-008	0
-6.46e-008	0
-6.44e-008	0
-6.42e-008	0
-6.4e-008	0
-6.38e-008	0
-6.36e-008	0
-6.34e-008	0
-6.32e-008	0
-6.3e-008	0
-6.28e-008	0
-6.26e-008	0
-6.24e-008	1
-6.22e-008	0
-6.2e-008	0
-6.18e-008	2
-6.16e-008	0
-6.14e-008	1
-6.12e-008	2
-6.1e-008	1
-6.08e-008	1
-6.06e-008	0
-6.04e-008	3
-6.02e-008	2
-6e-008	2
-5.98e-008	5
-5.96e-008	4
-5.94e-008	4
-5.92e-008	4
-5.9e-008	1
-5.88e-008	7
-5.86e-008	9
-5.84e-008	5
-5.82e-008	2
-5.8e-008	7
-5.78e-008	4
-5.76e-008	6
-5.74e-008	5
-5.72e-008	5
-5.7e-008	7
-5.68e-008	4
-5.66e-008	6
-5.64e-008	8
-5.62e-008	10
-5.6e-008	9
-5.58e-008	12
-5.56e-008	12
-5.54e-008	7
-5.52e-008	14
-5.5e-008	11
-5.48e-008	12
-5.46e-008	11
-5.44e-008	11
-5.42e-008	8
-5.4e-008	15
-5.38e-008	11
-5.36e-008	16
-5.34e-008	16
-5.32e-008	7
-5.3e-008	10
-5.28e-008	7
-5.26e-008	11
-5.24e-008	10
-5.22e-008	6
-5.2e-008	11
-5.18e-008	10
-5.16e-008	9
-5.14e-008	9
-5.12e-008	6
-5.1e-008	5
-5.08e-008	8
-5.06e-008	5
-5.04e-008	4
-5.02e-008	9
-5e-008	3
-4.98e-008	1
-4.96e-008	6
-4.94e-008	3
-4.92e-008	2
-4.9e-008	1
-4.88e-008	0
-4.86e-008	3
-4.84e-008	4
-4.82e-008	7
-4.8e-008	4
-4.78e-008	3
-4.76e-008	4
-4.74e-008	0
-4.72e-008	4
-4.7e-008	2
-4.68e-008	3
-4.66e-008	2
-4.64e-008	4
-4.62e-008	3
-4.6e-008	2
-4.58e-008	1
-4.56e-008	7
-4.54e-008	9
-4.52e-008	3
-4.5e-008	4
-4.48e-008	2
-4.46e-008	7
-4.44e-008	6
-4.42e-008	6
-4.4e-008	5
-4.38e-008	9
-4.36e-008	11
-4.34e-008	9
-4.32e-008	15
-4.3e-008	12
-4.28e-008	5
-4.26e-008	6
-4.24e-008	10
-4.22e-008	9
-4.2e-008	14
-4.18e-008	12
-4.16e-008	12
-4.14e-008	11
-4.12e-008	14
-4.1e-008	11
-4.08e-008	9
-4.06e-008	13
-4.04e-008	18
-4.02e-008	16
-4e-008	14
-3.98e-008	6
-3.96e-008	13
-3.94e-008	9
-3.92e-008	12
-3.9e-008	9
-3.88e-008	10
-3.86e-008	6
-3.84e-008	12
-3.82e-008	7
-3.8e-008	6
-3.78e-008	10
-3.76e-008	7
-3.74e-008	5
-3.72e-008	3
-3.7e-008	8
-3.68e-008	7
-3.66e-008	7
-3.64e-008	10
-3.62e-008	2
-3.6e-008	9
-3.58e-008	7
-3.56e-008	2
-3.54e-008	6
-3.52e-008	6
-3.5e-008	2
-3.48e-008	4
-3.46e-008	8
-3.44e-008	6
-3.42e-008	7
-3.4e-008	1
-3.38e-008	4
-3.36e-008	4
-3.34e-008	3
-3.32e-008	3
-3.3e-008	4
-3.28e-008	4
-3.26e-008	5
-3.24e-008	7
-3.22e-008	3
-3.2e-008	1
-3.18e-008	1
-3.16e-008	7
-3.14e-008	9
-3.12e-008	1
-3.1e-008	4
-3.08e-008	2
-3.06e-008	3
-3.04e-008	7
-3.02e-008	5
-3e-008	3
-2.98e-008	2
-2.96e-008	7
-2.94e-008	8
-2.92e-008	0
-2.9e-008	2
-2.88e-008	7
-2.86e-008	4
-2.84e-008	3
-2.82e-008	8
-2.8e-008	6
-2.78e-008	5
-2.76e-008	5
-2.74e-008	7
-2.72e-008	1
-2.7e-008	5
-2.68e-008	5
-2.66e-008	5
-2.64e-008	3
-2.62e-008	7
-2.6e-008	9
-2.58e-008	10
-2.56e-008	1
-2.54e-008	9
-2.52e-008	9
-2.5e-008	4
-2.48e-008	4
-2.46e-008	12
-2.44e-008	8
-2.42e-008	6
-2.4e-008	6
-2.38e-008	10
-2.36e-008	2
-2.34e-008	10
-2.32e-008	11
-2.3e-008	4
-2.28e-008	14
-2.26e-008	12
-2.24e-008	13
-2.22e-008	9
-2.2e-008	9
-2.18e-008	21
-2.16e-008	14
-2.14e-008	23
-2.12e-008	23
-2.1e-008	24
-2.08e-008	29
-2.06e-008	47
-2.04e-008	43
-2.02e-008	40
-2e-008	52
-1.98e-008	52
-1.96e-008	91
-1.94e-008	71
-1.92e-008	99
-1.9e-008	97
-1.88e-008	100
-1.86e-008	118
-1.84e-008	131
-1.82e-008	152
-1.8e-008	178
-1.78e-008	146
-1.76e-008	164
-1.74e-008	155
-1.72e-008	161
-1.7e-008	167
-1.68e-008	155
-1.66e-008	162
-1.64e-008	147
-1.62e-008	124
-1.6e-008	142
-1.58e-008	125
-1.56e-008	101
-1.54e-008	90
-1.52e-008	83
-1.5e-008	78
-1.48e-008	51
-1.46e-008	48
-1.44e-008	44
-1.42e-008	44
-1.4e-008	36
-1.38e-008	31
-1.36e-008	22
-1.34e-008	29
-1.32e-008	18
-1.3e-008	22
-1.28e-008	14
-1.26e-008	14
-1.24e-008	12
-1.22e-008	17
-1.2e-008	8
-1.18e-008	11
-1.16e-008	19
-1.14e-008	18
-1.12e-008	16
-1.1e-008	13
-1.08e-008	12
-1.06e-008	20
-1.04e-008	11
-1.02e-008	20
-1e-008	18
-9.8e-009	19
-9.6e-009	11
-9.4e-009	20
-9.2e-009	14
-9e-009	16
-8.8e-009	20
-8.6e-009	18
-8.4e-009	20
-8.2e-009	19
-8e-009	24
-7.8e-009	16
-7.6e-009	17
-7.4e-009	23
-7.2e-009	20
-7e-009	16
-6.8e-009	9
-6.6e-009	18
-6.4e-009	15
-6.2e-009	20
-6e-009	10
-5.8e-009	13
-5.6e-009	6
-5.4e-009	8
-5.2e-009	15
-5e-009	13
-4.8e-009	11
-4.6e-009	14
-4.4e-009	18
-4.2e-009	17
-4e-009	13
-3.8e-009	11
-3.6e-009	15
-3.4e-009	10
-3.2e-009	7
-3e-009	8
-2.8e-009	13
-2.6e-009	138
-2.4e-009	1214
-2.2e-009	1826
-2e-009	930
-1.8e-009	74
-1.6e-009	1
-1.4e-009	0
-1.2e-009	0
-1e-009	0
-8e-010	0
-6e-010	0
-4e-010	0
-2e-010	0
3.141e-022	0
2e-010	0
4e-010	0
6e-010	0
8e-010	0
1e-009	0
1.2e-009	0
1.4e-009	0
1.6e-009	0
1.8e-009	0
2e-009	0
2.2e-009	0
2.4e-009	0
2.6e-009	0
2.8e-009	0
3e-009	0
3.2e-009	0
3.4e-009	0
3.6e-009	0
3.8e-009	0
4e-009	0
4.2e-009	0
4.4e-009	0
4.6e-009	0
4.8e-009	0
5e-009	0
5.2e-009	0
5.4e-009	0
5.6e-009	0
5.8e-009	0
6e-009	0
6.2e-009	0
6.4e-009	0
6.6e-009	0
6.8e-009	0
7e-009	0
7.2e-009	0
7.4e-009	0
7.6e-009	0
7.8e-009	0
